C:\Users\Leovijil\Documents\NetBeansProjects\InvoiceApi\src\main\java\hn\com\tigo\invoice\entity\InvoiceListEntity.java
C:\Users\Leovijil\Documents\NetBeansProjects\InvoiceApi\src\main\java\hn\com\tigo\invoice\dto\AllStatsDTO.java
C:\Users\Leovijil\Documents\NetBeansProjects\InvoiceApi\src\main\java\hn\com\tigo\invoice\entity\AcuseListMensajerosEntity.java
C:\Users\Leovijil\Documents\NetBeansProjects\InvoiceApi\src\main\java\hn\com\tigo\invoice\ApplicationConfig.java
C:\Users\Leovijil\Documents\NetBeansProjects\InvoiceApi\src\main\java\hn\com\tigo\invoice\entity\AcuseByCicloPerClienteEntity.java
C:\Users\Leovijil\Documents\NetBeansProjects\InvoiceApi\src\main\java\hn\com\tigo\invoice\entity\AcuseStatsMensByPerCicloEntity.java
C:\Users\Leovijil\Documents\NetBeansProjects\InvoiceApi\src\main\java\hn\com\tigo\invoice\entity\AllStatsAcusesEntity.java
C:\Users\Leovijil\Documents\NetBeansProjects\InvoiceApi\src\main\java\hn\com\tigo\invoice\dto\AcuseRowDTO.java
C:\Users\Leovijil\Documents\NetBeansProjects\InvoiceApi\src\main\java\hn\com\tigo\invoice\entity\AcusesParamEntity.java
C:\Users\Leovijil\Documents\NetBeansProjects\InvoiceApi\src\main\java\hn\com\tigo\invoice\AdapterConstants.java
C:\Users\Leovijil\Documents\NetBeansProjects\InvoiceApi\src\main\java\hn\com\tigo\invoice\dto\AcuseAllPerCiclosDTO.java
C:\Users\Leovijil\Documents\NetBeansProjects\InvoiceApi\src\main\java\hn\com\tigo\invoice\dto\AcuseAllMensajerosDTO.java
C:\Users\Leovijil\Documents\NetBeansProjects\InvoiceApi\src\main\java\hn\com\tigo\invoice\dto\InvoiceStatusModel.java
C:\Users\Leovijil\Documents\NetBeansProjects\InvoiceApi\src\main\java\hn\com\tigo\invoice\dto\InvoiceStats.java
C:\Users\Leovijil\Documents\NetBeansProjects\InvoiceApi\src\main\java\hn\com\tigo\invoice\entity\AllAcusesByPerCicloEntity.java
C:\Users\Leovijil\Documents\NetBeansProjects\InvoiceApi\src\main\java\hn\com\tigo\invoice\dto\AcuseAllMotivosDTO.java
C:\Users\Leovijil\Documents\NetBeansProjects\InvoiceApi\src\main\java\hn\com\tigo\invoice\entity\RowAcusesListEntity.java
C:\Users\Leovijil\Documents\NetBeansProjects\InvoiceApi\src\main\java\hn\com\tigo\invoice\entity\AllStatsEntity.java
C:\Users\Leovijil\Documents\NetBeansProjects\InvoiceApi\src\main\java\hn\com\tigo\invoice\dto\AcuseBycicloPerClienteDTO.java
C:\Users\Leovijil\Documents\NetBeansProjects\InvoiceApi\src\main\java\hn\com\tigo\invoice\dto\InvoiceList.java
C:\Users\Leovijil\Documents\NetBeansProjects\InvoiceApi\src\main\java\hn\com\tigo\invoice\dto\AcuseAllStatsDTO.java
C:\Users\Leovijil\Documents\NetBeansProjects\InvoiceApi\src\main\java\hn\com\tigo\invoice\entity\AcuseListMotivosEntity.java
C:\Users\Leovijil\Documents\NetBeansProjects\InvoiceApi\src\main\java\hn\com\tigo\invoice\dto\AcuseListDTO.java
C:\Users\Leovijil\Documents\NetBeansProjects\InvoiceApi\src\main\java\hn\com\tigo\invoice\entity\AllPerCiclosEntity.java
C:\Users\Leovijil\Documents\NetBeansProjects\InvoiceApi\src\main\java\hn\com\tigo\invoice\dto\DTO.java
C:\Users\Leovijil\Documents\NetBeansProjects\InvoiceApi\src\main\java\hn\com\tigo\invoice\entity\InvoiceListParamEntity.java
C:\Users\Leovijil\Documents\NetBeansProjects\InvoiceApi\src\main\java\hn\com\tigo\invoice\dto\AllstatsMensByPerCicloDTO.java
C:\Users\Leovijil\Documents\NetBeansProjects\InvoiceApi\src\main\java\hn\com\tigo\invoice\InvoiceApis.java
C:\Users\Leovijil\Documents\NetBeansProjects\InvoiceApi\src\main\java\hn\com\tigo\invoice\AdapterValidationType.java
C:\Users\Leovijil\Documents\NetBeansProjects\InvoiceApi\src\main\java\hn\com\tigo\invoice\dto\GeneralResponse.java
C:\Users\Leovijil\Documents\NetBeansProjects\InvoiceApi\src\main\java\hn\com\tigo\invoice\manager\InvoiceManager.java
C:\Users\Leovijil\Documents\NetBeansProjects\InvoiceApi\src\main\java\hn\com\tigo\invoice\entity\InvoiceStatsEntity.java
